{
    "services": [
        {
        "FTS": {
            "code": "FTS",
            "description": "Foto's bestellen voor een scherpe prijs. En de beste inspiratie voor je mooiste foto's.",
            "shortDescription": "Fotoservice"
        },
        "GDA": {
            "code": "GDA",
            "description": "Voor contant geld kun je bij AH-winkels met een geldautomaat pinnen.",
            "shortDescription": "Geldautomaat"
        },
        "WFS": {
            "code": "WFS",
            "description": "Om gebruik te maken van boodschappenhulp Appie bieden we gratis draadloos internet aan. ",
            "shortDescription": "WiFi-service"
        },
        "ZFS": {
            "code": "ZFS",
            "description": "Zelf je boodschappen scannen met een handscanner of je mobiele telefoon en afrekenen bij een pin betaalpaal.",
            "shortDescription": "Zelfscan"
        },
        "PKB": {
            "code": "PKB",
            "description": "Het parkeerbeleid verschilt per AH-winkel. ",
            "shortDescription": "Parkeren (betaald)"
        },
        "GGG": {
            "code": "GGG",
            "description": "Gall & Gall Gemak biedt je een compleet assortiment whisky, cognac, likeuren, mixables en binnenlands gedistilleerd.",
            "shortDescription": "Gall en Gall gemak"
        },
        "BLP": {
            "code": "BLP",
            "description": "Ook voor mooie bloemen en planten kun je bij ons terecht. Voor jezelf of om cadeau te geven.",
            "shortDescription": "Bloemen en planten"
        },
        "PBZ": {
            "code": "PBZ",
            "description": "Het parkeerbeleid verschilt per AH-winkel. ",
            "shortDescription": "Parkeren (blauwe zone)"
        },
        "GRS": {
            "code": "GRS",
            "description": "Op de Grill&Steak afdeling van AH XL bereiden we de lekkerste grill en vleesproducten.",
            "shortDescription": "Grill en Steak"
        },
        "LTR": {
            "code": "LTR",
            "description": "Loten van je favoriete loterij koop je bij AH-winkels met een servicebalie (assortiment kan verschillen per winkel).",
            "shortDescription": "Loterijen"
        },
        "OVS": {
            "code": "OVS",
            "description": "Voor het kopen en opladen van een anonieme OV-chipkaart of een wegwerpchipkaart. ",
            "shortDescription": "OV-service"
        },
        "KPS": {
            "code": "KPS",
            "description": "Kopiëren en afdrukken in kleur en/of zwart/wit.",
            "shortDescription": "Kopieerservice"
        },
        "SB": {
            "code": "SB",
            "description": "Verse sushi die de hele dag door in de winkel wordt bereid door gespecialiseerde sushichefs.",
            "shortDescription": "Sushibar"
        },
        "PSS": {
            "code": "PSS",
            "description": "Om pakketten te versturen en op te halen en om postzegels te kopen.",
            "shortDescription": "Postservice"
        },
        "PDG": {
            "code": "PDG",
            "description": "Het parkeerbeleid verschilt per AH-winkel. ",
            "shortDescription": "Parkeren (deels gratis)"
        },
        "BLA": {
            "code": "BLA",
            "description": "Tijdens het boodschappen doen je bol.com bestelling afhalen.",
            "shortDescription": "Bol.com afhaalpunt"
        },
        "SMS": {
            "code": "SMS",
            "description": "Je kleding schoon en fris met onze Stomerijservice.",
            "shortDescription": "Stomerijservice"
        },
        "SCH": {
            "code": "SCH",
            "description": "De mooiste agenda's en schoolspullen van de enige echte V&D Schoolcampus koop je nu bij Albert Heijn!",
            "shortDescription": "Schoolcampus"
        },
        "PGR": {
            "code": "PGR",
            "description": "Het parkeerbeleid verschilt per AH-winkel. ",
            "shortDescription": "Parkeren (gratis)"
        },
        "RCL": {
            "code": "RCL",
            "description": "Albert Heijn helpt om zoveel mogelijk materiaal te recyclen (glasbak, kledingcontainer, oliecontainer, lege batterijen).",
            "shortDescription": "Recycling"
        },
        "HLA": {
            "code": "HLA",
            "description": "Albert Heijn verkoopt rund-, lams- en kippenvlees dat 100% halal is.",
            "shortDescription": "Halal assortiment"
        }
    ]
}